%YAML 1.1
%TAG !u! tag:unity3d.com,2011:
--- !u!114 &11400000
MonoBehaviour:
  m_ObjectHideFlags: 0
  m_CorrespondingSourceObject: {fileID: 0}
  m_PrefabInstance: {fileID: 0}
  m_PrefabAsset: {fileID: 0}
  m_GameObject: {fileID: 0}
  m_Enabled: 1
  m_EditorHideFlags: 0
  m_Script: {fileID: 11500000, guid: ab2114bdc8544297b417dfefe9f1e410, type: 3}
  m_Name: 75% Style Sheet
  m_EditorClassIdentifier: 
  m_StyleList:
  - m_Name: H1
    m_HashCode: 2425
    m_OpeningDefinition: <size=2em><b><#40ff80>*
    m_ClosingDefinition: '*</size></b></color>'
    m_OpeningTagArray: 3c00000073000000690000007a000000650000003d00000032000000650000006d0000003e0000003c000000620000003e0000003c000000230000003400000030000000660000006600000038000000300000003e0000002a000000
    m_ClosingTagArray: 2a0000003c0000002f00000073000000690000007a000000650000003e0000003c0000002f000000620000003e0000003c0000002f000000630000006f0000006c0000006f000000720000003e000000
  - m_Name: Quote
    m_HashCode: 92254330
    m_OpeningDefinition: <i><size=75%><margin=10%>
    m_ClosingDefinition: </i></size></width></margin>
    m_OpeningTagArray: 3c000000690000003e0000003c00000073000000690000007a000000650000003d0000003700000035000000250000003e0000003c0000006d000000610000007200000067000000690000006e0000003d0000003100000030000000250000003e000000
    m_ClosingTagArray: 3c0000002f000000690000003e0000003c0000002f00000073000000690000007a000000650000003e0000003c0000002f00000077000000690000006400000074000000680000003e0000003c0000002f0000006d000000610000007200000067000000690000006e0000003e000000
  - m_Name: Link
    m_HashCode: 2687968
    m_OpeningDefinition: <u><#40a0ff><link="ID_01">
    m_ClosingDefinition: </u></color></link>
    m_OpeningTagArray: 3c000000750000003e0000003c000000230000003400000030000000610000003000000066000000660000003e0000003c0000006c000000690000006e0000006b0000003d0000002200000049000000440000005f0000003000000031000000220000003e000000
    m_ClosingTagArray: 3c0000002f000000750000003e0000003c0000002f000000630000006f0000006c0000006f000000720000003e0000003c0000002f0000006c000000690000006e0000006b0000003e000000
  - m_Name: Title
    m_HashCode: 98732960
    m_OpeningDefinition: <size=125%><b><align=center>
    m_ClosingDefinition: </size></b></align>
    m_OpeningTagArray: 3c00000073000000690000007a000000650000003d000000310000003200000035000000250000003e0000003c000000620000003e0000003c000000610000006c00000069000000670000006e0000003d00000063000000650000006e0000007400000065000000720000003e000000
    m_ClosingTagArray: 3c0000002f00000073000000690000007a000000650000003e0000003c0000002f000000620000003e0000003c0000002f000000610000006c00000069000000670000006e0000003e000000
  - m_Name: H2
    m_HashCode: 2426
    m_OpeningDefinition: <size=1.5em><b><#4080FF>
    m_ClosingDefinition: </size></b></color>
    m_OpeningTagArray: 3c00000073000000690000007a000000650000003d000000310000002e00000035000000650000006d0000003e0000003c000000620000003e0000003c000000230000003400000030000000380000003000000046000000460000003e000000
    m_ClosingTagArray: 3c0000002f00000073000000690000007a000000650000003e0000003c0000002f000000620000003e0000003c0000002f000000630000006f0000006c0000006f000000720000003e000000
  - m_Name: H3
    m_HashCode: 2427
    m_OpeningDefinition: <size=1.17em><b><#FF8040>
    m_ClosingDefinition: </size></b></color>
    m_OpeningTagArray: 3c00000073000000690000007a000000650000003d000000310000002e0000003100000037000000650000006d0000003e0000003c000000620000003e0000003c000000230000004600000046000000380000003000000034000000300000003e000000
    m_ClosingTagArray: 3c0000002f00000073000000690000007a000000650000003e0000003c0000002f000000620000003e0000003c0000002f000000630000006f0000006c0000006f000000720000003e000000
  - m_Name: C1
    m_HashCode: 2194
    m_OpeningDefinition: <color=#ffff40>
    m_ClosingDefinition: </color>
    m_OpeningTagArray: 3c000000630000006f0000006c0000006f000000720000003d000000230000006600000066000000660000006600000034000000300000003e000000
    m_ClosingTagArray: 3c0000002f000000630000006f0000006c0000006f000000720000003e000000
  - m_Name: C2
    m_HashCode: 2193
    m_OpeningDefinition: <color=#ff40FF><size=125%>
    m_ClosingDefinition: </color></size>
    m_OpeningTagArray: 3c000000630000006f0000006c0000006f000000720000003d000000230000006600000066000000340000003000000046000000460000003e0000003c00000073000000690000007a000000650000003d000000310000003200000035000000250000003e000000
    m_ClosingTagArray: 3c0000002f000000630000006f0000006c0000006f000000720000003e0000003c0000002f00000073000000690000007a000000650000003e000000
  - m_Name: C3
    m_HashCode: 2192
    m_OpeningDefinition: <color=#80A0FF><b>
    m_ClosingDefinition: </color></b>
    m_OpeningTagArray: 3c000000630000006f0000006c0000006f000000720000003d000000230000003800000030000000410000003000000046000000460000003e0000003c000000620000003e000000
    m_ClosingTagArray: 3c0000002f000000630000006f0000006c0000006f000000720000003e0000003c0000002f000000620000003e000000
  - m_Name: Dynamic
    m_HashCode: 1600183413
    m_OpeningDefinition: <size=75%>
    m_ClosingDefinition: </size>
    m_OpeningTagArray: 3c00000073000000690000007a000000650000003d0000003700000035000000250000003e000000
    m_ClosingTagArray: 3c0000002f00000073000000690000007a000000650000003e000000
